#FIG 3.2  Produced by xfig version 3.2.6
Portrait
Center
Inches
Letter
100.00
Single
-2
# Generated by graphviz version 2.38.0 (20140413.2041)
# Title: patterns
# Pages: 1
1200 2
0 32 #d3d3d3
0 33 #fffffe
6 2625 5925 14400 14025
# x4_27
2 3 0 1 0 32 1 0 20 0.000 0 0 0 0 0 5
	 8545 13960 8545 12280 9705 12280 9705 13960 8545 13960
2 1 0 1 0 0 1 0 0 0.000 0 0 0 0 0 2
	 8545 12740 9705 12740
2 1 0 1 0 0 1 0 0 0.000 0 0 0 0 0 2
	 8545 13200 9705 13200
# x4_1
2 3 0 1 0 7 1 0 20 0.000 0 0 0 0 0 5
	 4075 7470 4075 6090 5415 6090 5415 7470 4075 7470
2 1 0 1 0 0 1 0 0 0.000 0 0 0 0 0 2
	 4075 6550 5415 6550
2 1 0 1 0 0 1 0 0 0.000 0 0 0 0 0 2
	 4075 7010 5415 7010
# x4_10
2 3 0 1 0 32 1 0 20 0.000 0 0 0 0 0 5
	 5545 10940 5545 9260 6785 9260 6785 10940 5545 10940
2 1 0 1 0 0 1 0 0 0.000 0 0 0 0 0 2
	 5545 9720 6785 9720
2 1 0 1 0 0 1 0 0 0.000 0 0 0 0 0 2
	 5545 10180 6785 10180
2 3 0 1 0 0 0 0 20 0.000 0 0 0 0 0 4
	 5694 9043 5721 9253 5569 9106 5694 9043
# x4_5
2 3 0 1 0 7 1 0 20 0.000 0 0 0 0 0 5
	 3345 10790 3345 9410 4425 9410 4425 10790 3345 10790
2 1 0 1 0 0 1 0 0 0.000 0 0 0 0 0 2
	 3345 9870 4425 9870
2 1 0 1 0 0 1 0 0 0.000 0 0 0 0 0 2
	 3345 10330 4425 10330
2 3 0 1 0 0 0 0 20 0.000 0 0 0 0 0 4
	 3245 9478 3342 9667 3148 9580 3245 9478
# x4_16
2 3 0 1 0 7 1 0 20 0.000 0 0 0 0 0 5
	 8965 10790 8965 9410 10205 9410 10205 10790 8965 10790
2 1 0 1 0 0 1 0 0 0.000 0 0 0 0 0 2
	 8965 9870 10205 9870
2 1 0 1 0 0 1 0 0 0.000 0 0 0 0 0 2
	 8965 10330 10205 10330
2 3 0 1 0 0 0 0 20 0.000 0 0 0 0 0 4
	 9000 9206 9070 9405 8890 9293 9000 9206
# x4_26
2 3 0 1 0 32 1 0 20 0.000 0 0 0 0 0 5
	 12385 10940 12385 9260 13625 9260 13625 10940 12385 10940
2 1 0 1 0 0 1 0 0 0.000 0 0 0 0 0 2
	 12385 9720 13625 9720
2 1 0 1 0 0 1 0 0 0.000 0 0 0 0 0 2
	 12385 10180 13625 10180
2 3 0 1 0 0 0 0 20 0.000 0 0 0 0 0 4
	 9897 12391 9706 12483 9799 12292 9897 12391
# x4_9
2 3 0 1 0 7 1 0 20 0.000 0 0 0 0 0 5
	 12465 13810 12465 12430 13545 12430 13545 13810 12465 13810
2 1 0 1 0 0 1 0 0 0.000 0 0 0 0 0 2
	 12465 12890 13545 12890
2 1 0 1 0 0 1 0 0 0.000 0 0 0 0 0 2
	 12465 13350 13545 13350
2 3 0 1 0 0 0 0 20 0.000 0 0 0 0 0 4
	 13637 12284 13482 12429 13512 12220 13637 12284
# x4_31
2 3 0 1 0 7 1 0 20 0.000 0 0 0 0 0 5
	 10745 13810 10745 12430 11905 12430 11905 13810 10745 13810
2 1 0 1 0 0 1 0 0 0.000 0 0 0 0 0 2
	 10745 12890 11905 12890
2 1 0 1 0 0 1 0 0 0.000 0 0 0 0 0 2
	 10745 13350 11905 13350
2 3 0 1 0 0 0 0 20 0.000 0 0 0 0 0 4
	 12102 12515 11907 12599 12007 12412 12102 12515
# x4_11
2 3 0 1 0 32 1 0 20 0.000 0 0 0 0 0 5
	 5775 7620 5775 5940 7115 5940 7115 7620 5775 7620
2 1 0 1 0 0 1 0 0 0.000 0 0 0 0 0 2
	 5775 6400 7115 6400
2 1 0 1 0 0 1 0 0 0.000 0 0 0 0 0 2
	 5775 6860 7115 6860
2 3 0 1 0 0 0 0 20 0.000 0 0 0 0 0 4
	 6218 9059 6146 9259 6078 9058 6218 9059
2 3 0 1 0 0 0 0 20 0.000 0 0 0 0 0 4
	 4097 9231 3979 9407 3961 9196 4097 9231
2 3 0 1 0 0 0 0 20 0.000 0 0 0 0 0 4
	 9585 9194 9548 9403 9447 9217 9585 9194
2 3 0 1 0 0 0 0 20 0.000 0 0 0 0 0 4
	 8538 12110 8543 12322 8407 12160 8538 12110
2 3 0 1 0 0 0 0 20 0.000 0 0 0 0 0 4
	 12363 12377 12459 12566 12266 12478 12363 12377
2 3 0 1 0 0 0 0 20 0.000 0 0 0 0 0 4
	 10605 12613 10741 12775 10534 12733 10605 12613
# x4_20
2 3 0 1 0 7 1 0 20 0.000 0 0 0 0 0 5
	 10105 7470 10105 6090 11345 6090 11345 7470 10105 7470
2 1 0 1 0 0 1 0 0 0.000 0 0 0 0 0 2
	 10105 6550 11345 6550
2 1 0 1 0 0 1 0 0 0.000 0 0 0 0 0 2
	 10105 7010 11345 7010
2 3 0 1 0 0 0 0 20 0.000 0 0 0 0 0 4
	 6996 9764 6785 9784 6938 9637 6996 9764
2 3 0 1 0 0 0 0 20 0.000 0 0 0 0 0 4
	 4631 9503 4432 9575 4543 9394 4631 9503
2 3 0 1 0 0 0 0 20 0.000 0 0 0 0 0 4
	 10412 9725 10205 9770 10339 9606 10412 9725
# x4_1->x4_10
3 4 0 1 0 0 0 0 -1 0.000 0 0 0 13
	 4971 7470 5034 7646 5101 7831 5173 8021 5248 8213 5326 8404
	 5405 8590 5440 8669 5476 8749 5513 8829 5552 8909 5590 8989
	 5629 9069
	 0.000 1.000 1.000 1.000 1.000 1.000 1.000 1.000
	 1.000 1.000 1.000 1.000 0.000
# x4_1->x4_5
3 4 0 1 0 0 0 0 -1 0.000 0 0 0 13
	 4069 7103 3832 7239 3587 7400 3346 7586 3121 7796 2924 8031
	 2765 8290 2698 8507 2704 8725 2770 8940 2882 9147 3027 9344
	 3193 9526
	 0.000 1.000 1.000 1.000 1.000 1.000 1.000 1.000
	 1.000 1.000 1.000 1.000 0.000
# x4_1->x4_16
3 4 0 1 0 0 0 0 -1 0.000 0 0 0 19
	 5113 7473 5179 7559 5250 7644 5327 7725 5408 7801 5494 7869
	 5585 7930 6022 8115 6415 8156 6787 8125 7160 8090 7559 8122
	 8005 8290 8130 8375 8275 8502 8435 8662 8603 8845 8774 9042
	 8942 9246
	 0.000 1.000 1.000 1.000 1.000 1.000 1.000 1.000
	 1.000 1.000 1.000 1.000 1.000 1.000 1.000 1.000
	 1.000 1.000 0.000
# x4_26->x4_27
3 4 0 1 0 0 0 0 -1 0.000 0 0 0 13
	 12381 10471 12124 10623 11843 10795 11547 10984 11247 11185 10949 11395
	 10665 11610 10524 11724 10384 11844 10245 11967 10108 12092 9976 12218
	 9848 12342
	 0.000 1.000 1.000 1.000 1.000 1.000 1.000 1.000
	 1.000 1.000 1.000 1.000 0.000
# x4_26->x4_9
3 4 0 1 0 0 0 0 -1 0.000 0 0 0 13
	 13566 10945 13630 11098 13683 11257 13720 11419 13739 11583 13735 11748
	 13705 11910 13688 11967 13670 12024 13649 12081 13626 12137 13602 12193
	 13576 12249
	 0.000 1.000 1.000 1.000 1.000 1.000 1.000 1.000
	 1.000 1.000 1.000 1.000 0.000
# x4_26->x4_31
3 4 0 1 0 0 0 0 -1 0.000 0 0 0 13
	 12904 10941 12868 11103 12825 11268 12774 11435 12714 11599 12644 11758
	 12565 11910 12517 11982 12450 12065 12367 12157 12271 12255 12167 12358
	 12056 12462
	 0.000 1.000 1.000 1.000 1.000 1.000 1.000 1.000
	 1.000 1.000 1.000 1.000 0.000
# x4_11->x4_10
3 4 0 1 0 0 0 0 -1 0.000 0 0 0 13
	 6277 7624 6258 7733 6241 7845 6224 7957 6209 8069 6196 8180
	 6185 8290 6175 8415 6166 8542 6159 8670 6154 8799 6150 8927
	 6148 9053
	 0.000 1.000 1.000 1.000 1.000 1.000 1.000 1.000
	 1.000 1.000 1.000 1.000 0.000
# x4_11->x4_5
3 4 0 1 0 0 0 0 -1 0.000 0 0 0 19
	 5916 7621 5865 7678 5812 7733 5758 7786 5702 7837 5644 7885
	 5585 7930 5391 8033 5210 8075 5037 8088 4868 8106 4699 8162
	 4525 8290 4408 8421 4307 8565 4219 8720 4144 8881 4082 9045
	 4030 9209
	 0.000 1.000 1.000 1.000 1.000 1.000 1.000 1.000
	 1.000 1.000 1.000 1.000 1.000 1.000 1.000 1.000
	 1.000 1.000 0.000
# x4_11->x4_16
3 4 0 1 0 0 0 0 -1 0.000 0 0 0 13
	 7121 6999 7450 7124 7807 7282 8174 7476 8531 7708 8861 7979
	 9145 8290 9238 8426 9316 8573 9382 8727 9437 8885 9481 9044
	 9515 9202
	 0.000 1.000 1.000 1.000 1.000 1.000 1.000 1.000
	 1.000 1.000 1.000 1.000 0.000
# x4_16->x4_27
3 4 0 1 0 0 0 0 -1 0.000 0 0 0 13
	 8964 10756 8865 10884 8769 11018 8679 11159 8596 11306 8524 11456
	 8465 11610 8442 11696 8430 11783 8427 11871 8434 11959 8449 12046
	 8471 12132
	 0.000 1.000 1.000 1.000 1.000 1.000 1.000 1.000
	 1.000 1.000 1.000 1.000 0.000
# x4_16->x4_9
3 4 0 1 0 0 0 0 -1 0.000 0 0 0 13
	 10208 10605 10396 10755 10596 10916 10803 11085 11014 11259 11222 11435
	 11425 11610 11575 11743 11727 11879 11878 12018 12027 12156 12173 12293
	 12313 12426
	 0.000 1.000 1.000 1.000 1.000 1.000 1.000 1.000
	 1.000 1.000 1.000 1.000 0.000
# x4_16->x4_31
3 4 0 1 0 0 0 0 -1 0.000 0 0 0 13
	 9450 10794 9437 10975 9434 11165 9447 11357 9477 11549 9529 11735
	 9605 11910 9687 12022 9813 12145 9975 12276 10162 12411 10363 12544
	 10569 12673
	 0.000 1.000 1.000 1.000 1.000 1.000 1.000 1.000
	 1.000 1.000 1.000 1.000 0.000
# x4_20->x4_10
3 4 0 1 0 0 0 0 -1 0.000 0 0 0 19
	 10639 7471 10591 7664 10528 7864 10448 8063 10349 8255 10229 8433
	 10085 8590 9875 8745 9678 8820 9482 8848 9276 8859 9047 8883
	 8785 8950 8471 9065 8154 9189 7839 9318 7533 9448 7242 9576
	 6973 9697
	 0.000 1.000 1.000 1.000 1.000 1.000 1.000 1.000
	 1.000 1.000 1.000 1.000 1.000 1.000 1.000 1.000
	 1.000 1.000 0.000
# x4_20->x4_5
3 4 0 1 0 0 0 0 -1 0.000 0 0 0 25
	 10104 7009 9710 7153 9255 7329 8761 7534 8248 7764 7736 8017
	 7245 8290 7166 8344 7107 8396 7058 8446 7008 8495 6948 8543
	 6865 8590 6583 8700 6340 8751 6116 8772 5892 8792 5648 8842
	 5365 8950 5229 9019 5094 9096 4962 9179 4832 9267 4707 9357
	 4587 9449
	 0.000 1.000 1.000 1.000 1.000 1.000 1.000 1.000
	 1.000 1.000 1.000 1.000 1.000 1.000 1.000 1.000
	 1.000 1.000 1.000 1.000 1.000 1.000 1.000 1.000
	 0.000
# x4_20->x4_16
3 4 0 1 0 0 0 0 -1 0.000 0 0 0 13
	 11254 7473 11348 7648 11426 7833 11479 8023 11502 8215 11486 8405
	 11425 8590 11299 8811 11143 9016 10966 9205 10774 9376 10575 9530
	 10376 9665
	 0.000 1.000 1.000 1.000 1.000 1.000 1.000 1.000
	 1.000 1.000 1.000 1.000 0.000
4 1 0 1 0 0 14 0.0000 6 225 420 9125 12640 Q4g\001
4 1 0 1 0 0 14 0.0000 6 0 60 9125 13100  \001
4 1 0 1 0 0 14 0.0000 6 165 570 9125 13560 Diana\001
4 1 0 1 0 0 14 0.0000 6 165 720 9125 13860 Charles\001
4 1 0 1 0 0 14 0.0000 6 210 405 4745 6450 Q4a\001
4 1 0 1 0 0 14 0.0000 6 165 645 4745 6910 female\001
4 1 0 1 0 0 14 0.0000 6 165 870 4745 7370 Charlotte\001
4 1 0 1 0 0 14 0.0000 6 210 360 6165 9620 Q4i\001
4 1 0 1 0 0 14 0.0000 6 0 60 6165 10080  \001
4 1 0 1 0 0 14 0.0000 6 165 450 6165 10540 Kate\001
4 1 0 1 0 0 14 0.0000 6 165 765 6165 10840 William\001
4 1 0 0 0 0 14 0.0000 6 180 585 5745 8570 parent\001
4 1 0 1 0 0 14 0.0000 6 210 420 3885 9770 Q4d\001
4 1 0 1 0 0 14 0.0000 6 165 645 3885 10230 female\001
4 1 0 1 0 0 14 0.0000 6 165 450 3885 10690 Kate\001
4 1 0 0 0 0 14 0.0000 6 180 585 3105 8570 parent\001
4 1 0 1 0 0 14 0.0000 6 210 375 9585 9770 Q4f\001
4 1 0 1 0 0 14 0.0000 6 165 465 9585 10230 male\001
4 1 0 1 0 0 14 0.0000 6 165 765 9585 10690 William\001
4 1 0 0 0 0 14 0.0000 6 180 585 8705 8570 parent\001
4 1 0 1 0 0 14 0.0000 6 210 420 13005 9620 Q4h\001
4 1 0 1 0 0 14 0.0000 6 165 465 13005 10080 male\001
4 1 0 1 0 0 14 0.0000 6 210 555 13005 10540 Harry\001
4 1 0 1 0 0 14 0.0000 6 165 765 13005 10840 William\001
4 1 0 0 0 0 14 0.0000 6 180 585 11005 11890 parent\001
4 1 0 1 0 0 14 0.0000 6 210 405 13005 12790 Q4c\001
4 1 0 1 0 0 14 0.0000 6 165 645 13005 13250 female\001
4 1 0 1 0 0 14 0.0000 6 165 570 13005 13710 Diana\001
4 1 0 0 0 0 14 0.0000 6 180 585 14065 11890 parent\001
4 1 0 1 0 0 14 0.0000 6 210 405 11325 12790 Q4e\001
4 1 0 1 0 0 14 0.0000 6 165 465 11325 13250 male\001
4 1 0 1 0 0 14 0.0000 6 165 720 11325 13710 Charles\001
4 1 0 0 0 0 14 0.0000 6 180 585 13025 11890 parent\001
4 1 0 1 0 0 14 0.0000 6 225 360 6445 6300 Q4j\001
4 1 0 1 0 0 14 0.0000 6 0 60 6445 6760  \001
4 1 0 1 0 0 14 0.0000 6 165 870 6445 7220 Charlotte\001
4 1 0 1 0 0 14 0.0000 6 225 795 6445 7520 Georges\001
4 1 0 0 0 0 14 0.0000 6 180 585 6525 8570 parent\001
4 1 0 0 0 0 14 0.0000 6 180 585 4865 8570 parent\001
4 1 0 0 0 0 14 0.0000 6 180 585 9665 8570 parent\001
4 1 0 0 0 0 14 0.0000 6 180 585 8805 11890 parent\001
4 1 0 0 0 0 14 0.0000 6 180 585 12065 11890 parent\001
4 1 0 0 0 0 14 0.0000 6 180 585 9945 11890 parent\001
4 1 0 1 0 0 14 0.0000 6 210 420 10725 6450 Q4b\001
4 1 0 1 0 0 14 0.0000 6 165 465 10725 6910 male\001
4 1 0 1 0 0 14 0.0000 6 225 795 10725 7370 Georges\001
4 1 0 0 0 0 14 0.0000 6 180 585 10665 8570 parent\001
4 1 0 0 0 0 14 0.0000 6 180 585 7585 8570 parent\001
4 1 0 0 0 0 14 0.0000 6 180 585 11825 8570 parent\001
-6
6 3000 150 4275 2475
# x1_32
2 3 0 1 0 7 1 0 20 0.000 0 0 0 0 0 5
	 3015 2445 3015 165 4255 165 4255 2445 3015 2445
2 1 0 1 0 0 1 0 0 0.000 0 0 0 0 0 2
	 3015 625 4255 625
2 1 0 1 0 0 1 0 0 0.000 0 0 0 0 0 2
	 3015 1085 4255 1085
4 1 0 1 0 0 14 0.0000 6 210 405 3635 525 Q1a\001
4 1 0 1 0 0 14 0.0000 6 165 465 3635 985 male\001
4 1 0 1 0 0 14 0.0000 6 225 795 3635 1445 Georges\001
4 1 0 1 0 0 14 0.0000 6 210 555 3635 1745 Harry\001
4 1 0 1 0 0 14 0.0000 6 165 765 3635 2045 William\001
4 1 0 1 0 0 14 0.0000 6 165 720 3635 2345 Charles\001
-6
6 3000 2925 4425 4950
# x2_3
2 3 0 1 0 7 1 0 20 0.000 0 0 0 0 0 5
	 3035 4920 3035 2940 4375 2940 4375 4920 3035 4920
2 1 0 1 0 0 1 0 0 0.000 0 0 0 0 0 2
	 3035 3400 4375 3400
2 1 0 1 0 0 1 0 0 0.000 0 0 0 0 0 2
	 3035 3860 4375 3860
4 1 0 1 0 0 14 0.0000 6 210 405 3705 3300 Q2a\001
4 1 0 1 0 0 14 0.0000 6 165 645 3705 3760 female\001
4 1 0 1 0 0 14 0.0000 6 165 870 3705 4220 Charlotte\001
4 1 0 1 0 0 14 0.0000 6 165 450 3705 4520 Kate\001
4 1 0 1 0 0 14 0.0000 6 165 570 3705 4820 Diana\001
-6
6 6150 75 12750 5700
# x3_18
2 3 0 1 0 7 1 0 20 0.000 0 0 0 0 0 5
	 6180 5390 6180 3710 7420 3710 7420 5390 6180 5390
2 1 0 1 0 0 1 0 0 0.000 0 0 0 0 0 2
	 6180 4170 7420 4170
2 1 0 1 0 0 1 0 0 0.000 0 0 0 0 0 2
	 6180 4630 7420 4630
# x3_12
2 3 0 1 0 32 1 0 20 0.000 0 0 0 0 0 5
	 7250 2370 7250 90 8590 90 8590 2370 7250 2370
2 1 0 1 0 0 1 0 0 0.000 0 0 0 0 0 2
	 7250 550 8590 550
2 1 0 1 0 0 1 0 0 0.000 0 0 0 0 0 2
	 7250 1010 8590 1010
2 3 0 1 0 0 0 0 20 0.000 0 0 0 0 0 4
	 7024 3524 6917 3707 6886 3497 7024 3524
# x3_13
2 3 0 1 0 32 1 0 20 0.000 0 0 0 0 0 5
	 10720 5690 10720 3410 11960 3410 11960 5690 10720 5690
2 1 0 1 0 0 1 0 0 0.000 0 0 0 0 0 2
	 10720 3870 11960 3870
2 1 0 1 0 0 1 0 0 0.000 0 0 0 0 0 2
	 10720 4330 11960 4330
2 3 0 1 0 0 0 0 20 0.000 0 0 0 0 0 4
	 10635 3567 10713 3764 10529 3659 10635 3567
# x3_6
2 3 0 1 0 7 1 0 20 0.000 0 0 0 0 0 5
	 7860 5390 7860 3710 8940 3710 8940 5390 7860 5390
2 1 0 1 0 0 1 0 0 0.000 0 0 0 0 0 2
	 7860 4170 8940 4170
2 1 0 1 0 0 1 0 0 0.000 0 0 0 0 0 2
	 7860 4630 8940 4630
2 3 0 1 0 0 0 0 20 0.000 0 0 0 0 0 4
	 8111 3493 8099 3705 7976 3532 8111 3493
# x3_21
2 3 0 1 0 7 1 0 20 0.000 0 0 0 0 0 5
	 10720 2220 10720 240 11960 240 11960 2220 10720 2220
2 1 0 1 0 0 1 0 0 0.000 0 0 0 0 0 2
	 10720 700 11960 700
2 1 0 1 0 0 1 0 0 0.000 0 0 0 0 0 2
	 10720 1160 11960 1160
2 3 0 1 0 0 0 0 20 0.000 0 0 0 0 0 4
	 7541 3611 7352 3708 7439 3514 7541 3611
2 3 0 1 0 0 0 0 20 0.000 0 0 0 0 0 4
	 12086 3354 11960 3525 11952 3313 12086 3354
2 3 0 1 0 0 0 0 20 0.000 0 0 0 0 0 4
	 9152 4243 8942 4270 9089 4117 9152 4243
# x3_12->x3_18
3 4 0 1 0 0 0 0 -1 0.000 0 0 0 13
	 7306 2375 7279 2436 7254 2497 7229 2558 7205 2619 7182 2679
	 7160 2740 7119 2864 7081 2990 7046 3119 7013 3249 6983 3379
	 6956 3507
	 0.000 1.000 1.000 1.000 1.000 1.000 1.000 1.000
	 1.000 1.000 1.000 1.000 0.000
# x3_12->x3_13
3 4 0 1 0 0 0 0 -1 0.000 0 0 0 13
	 8598 1755 8783 1900 8977 2056 9176 2220 9376 2391 9572 2565
	 9760 2740 9900 2878 10041 3020 10180 3167 10317 3315 10450 3462
	 10578 3608
	 0.000 1.000 1.000 1.000 1.000 1.000 1.000 1.000
	 1.000 1.000 1.000 1.000 0.000
# x3_12->x3_6
3 4 0 1 0 0 0 0 -1 0.000 0 0 0 13
	 7883 2371 7887 2483 7893 2596 7901 2709 7912 2821 7925 2931
	 7940 3040 7953 3118 7968 3196 7985 3275 8003 3353 8022 3432
	 8043 3510
	 0.000 1.000 1.000 1.000 1.000 1.000 1.000 1.000
	 1.000 1.000 1.000 1.000 0.000
# x3_21->x3_18
3 4 0 1 0 0 0 0 -1 0.000 0 0 0 25
	 10713 1625 10459 1781 10182 1955 9889 2141 9589 2337 9290 2538
	 9000 2740 8924 2798 8865 2850 8814 2897 8763 2943 8701 2990
	 8620 3040 8440 3125 8283 3172 8139 3203 7997 3237 7847 3296
	 7680 3400 7648 3424 7616 3450 7585 3476 7554 3503 7524 3530
	 7494 3559
	 0.000 1.000 1.000 1.000 1.000 1.000 1.000 1.000
	 1.000 1.000 1.000 1.000 1.000 1.000 1.000 1.000
	 1.000 1.000 1.000 1.000 1.000 1.000 1.000 1.000
	 0.000
# x3_21->x3_13
3 4 0 1 0 0 0 0 -1 0.000 0 0 0 13
	 11870 2222 11904 2307 11937 2393 11967 2479 11994 2566 12019 2653
	 12040 2740 12057 2838 12065 2937 12064 3036 12056 3136 12041 3234
	 12019 3333
	 0.000 1.000 1.000 1.000 1.000 1.000 1.000 1.000
	 1.000 1.000 1.000 1.000 0.000
# x3_21->x3_6
3 4 0 1 0 0 0 0 -1 0.000 0 0 0 13
	 11245 2221 11210 2364 11166 2507 11114 2649 11053 2786 10982 2917
	 10900 3040 10732 3212 10480 3403 10169 3604 9823 3806 9467 4000
	 9127 4177
	 0.000 1.000 1.000 1.000 1.000 1.000 1.000 1.000
	 1.000 1.000 1.000 1.000 0.000
4 1 0 1 0 0 14 0.0000 6 210 405 6800 4070 Q3c\001
4 1 0 1 0 0 14 0.0000 6 165 465 6800 4530 male\001
4 1 0 1 0 0 14 0.0000 6 165 765 6800 4990 William\001
4 1 0 1 0 0 14 0.0000 6 165 720 6800 5290 Charles\001
4 1 0 1 0 0 14 0.0000 6 210 420 7920 450 Q3d\001
4 1 0 1 0 0 14 0.0000 6 0 60 7920 910  \001
4 1 0 1 0 0 14 0.0000 6 165 870 7920 1370 Charlotte\001
4 1 0 1 0 0 14 0.0000 6 225 795 7920 1670 Georges\001
4 1 0 1 0 0 14 0.0000 6 210 555 7920 1970 Harry\001
4 1 0 1 0 0 14 0.0000 6 165 765 7920 2270 William\001
4 1 0 0 0 0 14 0.0000 6 180 585 7500 3020 parent\001
4 1 0 1 0 0 14 0.0000 6 210 405 11340 3770 Q3e\001
4 1 0 1 0 0 14 0.0000 6 0 60 11340 4230  \001
4 1 0 1 0 0 14 0.0000 6 165 450 11340 4690 Kate\001
4 1 0 1 0 0 14 0.0000 6 165 570 11340 4990 Diana\001
4 1 0 1 0 0 14 0.0000 6 165 765 11340 5290 William\001
4 1 0 1 0 0 14 0.0000 6 165 720 11340 5590 Charles\001
4 1 0 0 0 0 14 0.0000 6 180 585 10380 3020 parent\001
4 1 0 1 0 0 14 0.0000 6 210 420 8400 4070 Q3b\001
4 1 0 1 0 0 14 0.0000 6 165 645 8400 4530 female\001
4 1 0 1 0 0 14 0.0000 6 165 450 8400 4990 Kate\001
4 1 0 1 0 0 14 0.0000 6 165 570 8400 5290 Diana\001
4 1 0 0 0 0 14 0.0000 6 180 585 8280 3020 parent\001
4 1 0 1 0 0 14 0.0000 6 210 405 11340 600 Q3a\001
4 1 0 1 0 0 14 0.0000 6 165 465 11340 1060 male\001
4 1 0 1 0 0 14 0.0000 6 225 795 11340 1520 Georges\001
4 1 0 1 0 0 14 0.0000 6 210 555 11340 1820 Harry\001
4 1 0 1 0 0 14 0.0000 6 165 765 11340 2120 William\001
4 1 0 0 0 0 14 0.0000 6 180 585 9340 3020 parent\001
4 1 0 0 0 0 14 0.0000 6 180 585 12420 3020 parent\001
4 1 0 0 0 0 14 0.0000 6 180 585 11420 3020 parent\001
-6
